Kevin Church
740 Creighton st.
Melbourne, Fl. 32935
imktcjvc@gmail.com

Dupre logistics
1115 mingle rd
Baton Rouge, La 70807
855-686-5478
April 2015 - Jan. 27, 2017

WEINRICH TRUCK LINE 
C60  Hinton, Iowa 51734
Phone: 712-947-4887   
     February 2014 - April 2015
CDL Truck Driver

Dillon Transport
901 McClintock Drive, Suite 300
Burr Ridge, IL 60527
630-281-7093
     November 2013 - February 2014
CDL Truck Driver
 
WEINRICH TRUCK LINE           Hinton, Iowa
Phone: 712-947-4887                                              November 2009 – November 2013
CDL Truck Driver
 
SOCIAL SECURITY Disability For migraines not a problem anymore
512 mccloud st               Elizabethton, Tennessee
43764
Social Security Disability                                                   September 2006 – November 2009
 
OAKLEY TRANSPORT INC.                                                  Lake Wales, Fl.
Phone: 863-638-1435                                                      June 2006 – September 2006
CDL Truck Driver  
